{
    "version": 2,
    "projects": {
        "common-mappings": {
            "$schema": "../../node_modules/nx/schemas/project-schema.json",
            "root": "libs/common-mappings",
            "sourceRoot": "libs/common-mappings/src",
            "projectType": "library",
            "targets": {
                "lint": {
                    "executor": "@nrwl/linter:eslint",
                    "options": {
                        "lintFilePatterns": ["libs/common-mappings/**/*.ts"]
                    },
                    "outputs": ["{options.outputFile}"]
                },
                "test": {
                    "executor": "@nrwl/jest:jest",
                    "outputs": ["coverage/libs/common-mappings"],
                    "options": {
                        "jestConfig": "libs/common-mappings/jest.config.ts",
                        "passWithNoTests": true
                    }
                },
                "build": {
                    "executor": "@nrwl/js:tsc",
                    "outputs": ["{options.outputPath}"],
                    "options": {
                        "outputPath": "dist/libs/common-mappings",
                        "tsConfig": "libs/common-mappings/tsconfig.lib.json",
                        "packageJson": "libs/common-mappings/package.json",
                        "main": "libs/common-mappings/src/index.ts",
                        "assets": ["libs/common-mappings/*.md"]
                    }
                },
                "gen-crds": {
                    "executor": "@polaris-sloc/polaris-nx:generate-crds",
                    "options": {}
                }
            },
            "tags": ["scope:core"]
        },
        "custom-stream-sight-slo-controller": {
            "$schema": "../../node_modules/nx/schemas/project-schema.json",
            "root": "apps/custom-stream-sight-slo-controller",
            "sourceRoot": "apps/custom-stream-sight-slo-controller/src",
            "projectType": "application",
            "targets": {
                "build": {
                    "executor": "@nrwl/node:webpack",
                    "outputs": ["{options.outputPath}"],
                    "options": {
                        "outputPath": "dist/apps/custom-stream-sight-slo-controller",
                        "main": "apps/custom-stream-sight-slo-controller/src/main.ts",
                        "tsConfig": "apps/custom-stream-sight-slo-controller/tsconfig.app.json",
                        "assets": ["apps/custom-stream-sight-slo-controller/src/assets"],
                        "externalDependencies": "none"
                    },
                    "configurations": {
                        "production": {
                            "optimization": true,
                            "extractLicenses": true,
                            "inspect": false,
                            "fileReplacements": [
                                {
                                    "replace": "apps/custom-stream-sight-slo-controller/src/environments/environment.ts",
                                    "with": "apps/custom-stream-sight-slo-controller/src/environments/environment.prod.ts"
                                }
                            ]
                        }
                    }
                },
                "serve": {
                    "executor": "@nrwl/node:node",
                    "options": {
                        "buildTarget": "custom-stream-sight-slo-controller:build"
                    }
                },
                "lint": {
                    "executor": "@nrwl/linter:eslint",
                    "outputs": ["{options.outputFile}"],
                    "options": {
                        "lintFilePatterns": ["apps/custom-stream-sight-slo-controller/**/*.ts"]
                    }
                },
                "test": {
                    "executor": "@nrwl/jest:jest",
                    "outputs": ["coverage/apps/custom-stream-sight-slo-controller"],
                    "options": {
                        "jestConfig": "apps/custom-stream-sight-slo-controller/jest.config.ts",
                        "passWithNoTests": true
                    }
                },
                "docker-build": {
                    "executor": "@nrwl/workspace:run-commands",
                    "options": {
                        "commands": [
                            "docker build -f ./apps/custom-stream-sight-slo-controller/Dockerfile --build-arg POLARIS_APP_TYPE=slo --build-arg POLARIS_APP_NAME=custom-stream-sight-slo-controller -t registry.gitlab.com/rainbow-project1/rainbow-integration/custom-stream-sight-slo-controller:0.2.7 ."
                        ],
                        "parallel": false
                    }
                },
                "deploy": {
                    "executor": "@nrwl/workspace:run-commands",
                    "options": {
                        "commands": ["kubectl apply -f ./apps/custom-stream-sight-slo-controller/manifests/kubernetes"],
                        "parallel": false
                    }
                }
            },
            "tags": ["scope:slo", "orchestrator:kubernetes"]
        },
        "image-throughput-slo-controller": {
            "$schema": "../../node_modules/nx/schemas/project-schema.json",
            "root": "apps/image-throughput-slo-controller",
            "sourceRoot": "apps/image-throughput-slo-controller/src",
            "projectType": "application",
            "targets": {
                "build": {
                    "executor": "@nrwl/node:webpack",
                    "outputs": ["{options.outputPath}"],
                    "options": {
                        "outputPath": "dist/apps/image-throughput-slo-controller",
                        "main": "apps/image-throughput-slo-controller/src/main.ts",
                        "tsConfig": "apps/image-throughput-slo-controller/tsconfig.app.json",
                        "assets": ["apps/image-throughput-slo-controller/src/assets"],
                        "externalDependencies": "none"
                    },
                    "configurations": {
                        "production": {
                            "optimization": true,
                            "extractLicenses": true,
                            "inspect": false,
                            "fileReplacements": [
                                {
                                    "replace": "apps/image-throughput-slo-controller/src/environments/environment.ts",
                                    "with": "apps/image-throughput-slo-controller/src/environments/environment.prod.ts"
                                }
                            ]
                        }
                    }
                },
                "serve": {
                    "executor": "@nrwl/node:node",
                    "options": {
                        "buildTarget": "image-throughput-slo-controller:build"
                    }
                },
                "lint": {
                    "executor": "@nrwl/linter:eslint",
                    "options": {
                        "lintFilePatterns": ["apps/image-throughput-slo-controller/**/*.ts"]
                    },
                    "outputs": ["{options.outputFile}"]
                },
                "test": {
                    "executor": "@nrwl/jest:jest",
                    "outputs": ["coverage/apps/image-throughput-slo-controller"],
                    "options": {
                        "jestConfig": "apps/image-throughput-slo-controller/jest.config.ts",
                        "passWithNoTests": true
                    }
                },
                "docker-build": {
                    "executor": "@nrwl/workspace:run-commands",
                    "options": {
                        "commands": [
                            "docker build -f ./apps/image-throughput-slo-controller/Dockerfile --build-arg POLARIS_APP_TYPE=slo --build-arg POLARIS_APP_NAME=image-throughput-slo-controller -t registry.gitlab.com/rainbow-project1/rainbow-integration/image-throughput-slo-controller:latest ."
                        ],
                        "parallel": false
                    }
                },
                "deploy": {
                    "executor": "@nrwl/workspace:run-commands",
                    "options": {
                        "commands": ["kubectl apply -f ./apps/image-throughput-slo-controller/manifests/kubernetes"],
                        "parallel": false
                    }
                }
            },
            "tags": ["scope:slo", "orchestrator:kubernetes"]
        },
        "migration-estrat-controller": {
            "$schema": "../../node_modules/nx/schemas/project-schema.json",
            "root": "apps/migration-estrat-controller",
            "sourceRoot": "apps/migration-estrat-controller/src",
            "projectType": "application",
            "targets": {
                "build": {
                    "executor": "@nrwl/node:webpack",
                    "outputs": ["{options.outputPath}"],
                    "options": {
                        "outputPath": "dist/apps/migration-estrat-controller",
                        "main": "apps/migration-estrat-controller/src/main.ts",
                        "tsConfig": "apps/migration-estrat-controller/tsconfig.app.json",
                        "assets": ["apps/migration-estrat-controller/src/assets"],
                        "externalDependencies": "none"
                    },
                    "configurations": {
                        "production": {
                            "optimization": true,
                            "extractLicenses": true,
                            "inspect": false,
                            "fileReplacements": [
                                {
                                    "replace": "apps/migration-estrat-controller/src/environments/environment.ts",
                                    "with": "apps/migration-estrat-controller/src/environments/environment.prod.ts"
                                }
                            ]
                        }
                    }
                },
                "serve": {
                    "executor": "@nrwl/node:node",
                    "options": {
                        "buildTarget": "migration-estrat-controller:build"
                    }
                },
                "lint": {
                    "executor": "@nrwl/linter:eslint",
                    "outputs": ["{options.outputFile}"],
                    "options": {
                        "lintFilePatterns": ["apps/migration-estrat-controller/**/*.ts"]
                    }
                },
                "test": {
                    "executor": "@nrwl/jest:jest",
                    "outputs": ["coverage/apps/migration-estrat-controller"],
                    "options": {
                        "jestConfig": "apps/migration-estrat-controller/jest.config.ts",
                        "passWithNoTests": true
                    }
                },
                "docker-build": {
                    "executor": "@nrwl/workspace:run-commands",
                    "options": {
                        "commands": [
                            "docker build -f ./apps/migration-estrat-controller/Dockerfile --build-arg POLARIS_APP_TYPE=slo --build-arg POLARIS_APP_NAME=migration-estrat-controller -t registry.gitlab.com/rainbow-project1/rainbow-integration/migration-estrat-controller:0.0.6 ."
                        ],
                        "parallel": false
                    }
                },
                "deploy": {
                    "executor": "@nrwl/workspace:run-commands",
                    "options": {
                        "commands": ["kubectl apply -f ./apps/migration-estrat-controller/manifests/kubernetes"],
                        "parallel": false
                    }
                }
            },
            "tags": ["orchestrator:kubernetes"]
        },
        "opcua-message-estrat-controller": {
            "root": "apps/opcua-message-estrat-controller",
            "sourceRoot": "apps/opcua-message-estrat-controller/src",
            "projectType": "application",
            "targets": {
                "build": {
                    "executor": "@nrwl/node:webpack",
                    "outputs": ["{options.outputPath}"],
                    "options": {
                        "outputPath": "dist/apps/opcua-message-estrat-controller",
                        "main": "apps/opcua-message-estrat-controller/src/main.ts",
                        "tsConfig": "apps/opcua-message-estrat-controller/tsconfig.app.json",
                        "assets": ["apps/opcua-message-estrat-controller/src/assets"],
                        "externalDependencies": "none"
                    },
                    "configurations": {
                        "production": {
                            "optimization": true,
                            "extractLicenses": true,
                            "inspect": false,
                            "fileReplacements": [
                                {
                                    "replace": "apps/opcua-message-estrat-controller/src/environments/environment.ts",
                                    "with": "apps/opcua-message-estrat-controller/src/environments/environment.prod.ts"
                                }
                            ]
                        }
                    }
                },
                "serve": {
                    "executor": "@nrwl/node:node",
                    "options": {
                        "buildTarget": "opcua-message-estrat-controller:build"
                    },
                    "configurations": {
                        "production": {
                            "buildTarget": "opcua-message-estrat-controller:build:production"
                        }
                    }
                },
                "lint": {
                    "executor": "@nrwl/linter:eslint",
                    "outputs": ["{options.outputFile}"],
                    "options": {
                        "lintFilePatterns": ["apps/opcua-message-estrat-controller/**/*.ts"]
                    }
                },
                "test": {
                    "executor": "@nrwl/jest:jest",
                    "outputs": ["coverage/apps/opcua-message-estrat-controller"],
                    "options": {
                        "jestConfig": "apps/opcua-message-estrat-controller/jest.config.ts",
                        "passWithNoTests": true
                    }
                },
                "docker-build": {
                    "executor": "nx:run-commands",
                    "options": {
                        "commands": [
                            "docker build -f ./apps/opcua-message-estrat-controller/Dockerfile --build-arg POLARIS_APP_TYPE=slo --build-arg POLARIS_APP_NAME=opcua-message-estrat-controller -t polarissloc/opcua-message-estrat-controller:0.0.3 ."
                        ],
                        "parallel": false
                    }
                },
                "deploy": {
                    "executor": "nx:run-commands",
                    "options": {
                        "commands": ["kubectl apply -f ./apps/opcua-message-estrat-controller/manifests/kubernetes"],
                        "parallel": false
                    }
                }
            },
            "tags": []
        },
        "polaris-streamsight": {
            "$schema": "../../node_modules/nx/schemas/project-schema.json",
            "root": "libs/polaris-streamsight",
            "sourceRoot": "libs/polaris-streamsight/src",
            "projectType": "library",
            "targets": {
                "build": {
                    "executor": "@nrwl/js:tsc",
                    "outputs": ["{options.outputPath}"],
                    "options": {
                        "outputPath": "dist/libs/polaris-streamsight",
                        "tsConfig": "libs/polaris-streamsight/tsconfig.lib.json",
                        "packageJson": "libs/polaris-streamsight/package.json",
                        "main": "libs/polaris-streamsight/src/index.ts",
                        "assets": ["libs/polaris-streamsight/*.md"]
                    }
                },
                "lint": {
                    "executor": "@nrwl/linter:eslint",
                    "options": {
                        "lintFilePatterns": ["libs/polaris-streamsight/**/*.ts"]
                    },
                    "outputs": ["{options.outputFile}"]
                },
                "test": {
                    "executor": "@nrwl/jest:jest",
                    "outputs": ["coverage/libs/polaris-streamsight"],
                    "options": {
                        "jestConfig": "libs/polaris-streamsight/jest.config.ts",
                        "passWithNoTests": true
                    }
                },
                "gen-crds": {
                    "executor": "@polaris-sloc/polaris-nx:generate-crds",
                    "options": {}
                }
            },
            "tags": ["scope:core", "orchestrator:kubernetes"]
        }
    },
    "$schema": "./node_modules/nx/schemas/workspace-schema.json"
}
