module k8s.rainbow-h2020.eu/rainbow/orchestration

go 1.16

require (
	github.com/go-logr/logr v0.4.0
	github.com/mitchellh/hashstructure/v2 v2.0.2
	github.com/onsi/ginkgo v1.16.5
	github.com/onsi/gomega v1.15.0
	gonum.org/v1/gonum v0.9.3
	k8s.io/api v0.21.9
	k8s.io/apimachinery v0.21.9
	k8s.io/client-go v0.21.9
	k8s.io/klog/v2 v2.9.0
	sigs.k8s.io/controller-runtime v0.9.7
)
